﻿james        
john         
robert       
michael      
mary         
william      
david        
richard      
charles      
joseph       
thomas       
patricia     
christopher  
linda        
barbara      
daniel       
paul         
mark         
elizabeth    
donald       
jennifer     
george       
maria        
kenneth      
susan        
steven       
edward       
margaret     
brian        
ronald       
dorothy      
anthony      
lisa         
kevin        
nancy        
karen        
betty        
helen        
jason        
matthew      
gary         
timothy      
sandra       
jose         
larry        
jeffrey      
frank        
donna        
carol        
ruth         
scott        
eric         
stephen      
andrew       
sharon       
michelle     
laura        
sarah        
kimberly     
deborah      
jessica      
raymond      
shirley      
cynthia      
angela       
melissa      
brenda       
amy          
jerry        
gregory      
anna         
joshua       
virginia     
rebecca      
kathleen     
dennis       
pamela       
martha       
debra        
amanda       
walter       
stephanie    
willie       
patrick      
terry        
carolyn      
peter        
christine    
marie        
janet        
frances      
catherine    
harold       
henry        
douglas      
joyce        
ann          
diane        
alice        
jean         
julie        
carl         
kelly        
heather      
arthur       
teresa       
gloria       
doris        
ryan         
joe          
roger        
evelyn       
juan         
ashley       
jack         
cheryl       
albert       
joan         
mildred      
katherine    
justin       
jonathan     
gerald       
keith        
samuel       
judith       
rose         
janice       
lawrence     
ralph        
nicole       
judy         
nicholas     
christina    
roy          
kathy        
theresa      
benjamin     
beverly      
denise       
bruce        
brandon      
adam         
tammy        
irene        
fred         
billy        
harry        
jane         
wayne        
louis        
lori         
steve        
tracy        
jeremy       
rachel       
andrea       
aaron        
marilyn      
robin        
randy        
leslie       
kathryn      
eugene       
bobby        
howard       
carlos       
sara         
louise       
jacqueline   
anne         
wanda        
russell      
shawn        
victor       
julia        
bonnie       
ruby         
chris        
tina         
lois         
phyllis      
jamie        
norma        
martin       
paula        
jesse        
diana        
annie        
shannon      
ernest       
todd         
phillip      
lee          
lillian      
peggy        
emily        
crystal      
kim          
craig        
carmen       
gladys       
connie       
rita         
alan         
dawn         
florence     
dale         
sean         
francis      
johnny       
clarence     
philip       
edna         
tiffany      
tony         
rosa         
jimmy        
earl         
cindy        
antonio      
luis         
mike         
danny        
bryan        
grace        
stanley      
leonard      
wendy        
nathan       
manuel       
curtis       
victoria     
rodney       
norman       
edith        
sherry       
sylvia       
josephine    
allen        
thelma       
sheila       
ethel        
marjorie     
lynn         
ellen        
elaine       
marvin       
carrie       
marion       
charlotte    
vincent      
glenn        
travis       
monica       
jeffery      
jeff         
esther       
pauline      
jacob        
emma         
chad         
kyle         
juanita      
dana         
melvin       
jessie       
rhonda       
anita        
alfred       
hazel        
amber        
eva          
bradley      
ray          
jesus        
debbie       
herbert      
eddie        
joel         
frederick    
april        
lucille      
clara        
gail         
joanne       
eleanor      
valerie      
danielle     
erin         
edwin        
megan        
alicia       
suzanne      
michele      
don          
bertha       
veronica     
jill         
darlene      
ricky        
lauren       
geraldine    
troy         
stacy        
randall      
cathy        
joann        
sally        
lorraine     
barry        
alexander    
regina       
jackie       
erica        
beatrice     
dolores      
bernice      
mario        
bernard      
audrey       
yvonne       
francisco    
micheal      
leroy        
june         
annette      
samantha     
marcus       
theodore     
oscar        
clifford     
miguel       
jay          
renee        
ana          
vivian       
jim          
ida          
tom          
ronnie       
roberta      
holly        
brittany     
angel        
alex         
melanie      
jon          
yolanda      
tommy        
loretta      
jeanette     
calvin       
laurie       
leon         
katie        
stacey       
lloyd        
derek        
bill         
vanessa      
sue          
kristen      
alma         
warren       
elsie        
beth         
vicki        
jeanne       
jerome       
darrell      
tara         
rosemary     
leo          
floyd        
dean         
carla        
wesley       
terri        
eileen       
courtney     
alvin        
tim          
jorge        
greg         
gordon       
pedro        
lucy         
gertrude     
dustin       
derrick      
corey        
tonya        
dan          
ella         
lewis        
zachary      
wilma        
maurice      
kristin      
gina         
vernon       
vera         
roberto      
natalie      
clyde        
agnes        
herman       
charlene     
charlie      
bessie       
shane        
delores      
sam          
pearl        
melinda      
hector       
glen         
arlene       
ricardo      
tamara       
maureen      
lester       
gene         
colleen      
allison      
tyler        
rick         
joy          
johnnie      
georgia      
constance    
ramon        
marcia       
lillie       
claudia      
brent        
tanya        
nellie       
minnie       
gilbert      
marlene      
heidi        
glenda       
marc         
viola        
marian       
lydia        
billie       
stella       
guadalupe    
caroline     
reginald     
dora         
jo           
cecil        
casey        
brett        
vickie       
ruben        
jaime        
rafael       
nathaniel    
mattie       
milton       
edgar        
raul         
maxine       
irma         
myrtle       
marsha       
mabel        
chester      
ben          
andre        
adrian       
lena         
franklin     
duane        
christy      
tracey       
patsy        
gabriel      
deanna       
jimmie       
hilda        
elmer        
christian    
bobbie       
gwendolyn    
nora         
mitchell     
jennie       
brad         
ron          
roland       
nina         
margie       
leah         
harvey       
cory         
cassandra    
arnold       
priscilla    
penny        
naomi        
kay          
karl         
jared        
carole       
olga         
jan          
brandy       
lonnie       
leona        
dianne       
claude       
sonia        
jordan       
jenny        
felicia      
erik         
lindsey      
kerry        
darryl       
velma        
neil         
miriam       
becky        
violet       
kristina     
javier       
fernando     
cody         
clinton      
tyrone       
toni         
ted          
rene         
mathew       
lindsay      
julio        
darren       
misty        
mae          
lance        
sherri       
shelly       
sandy        
ramona       
pat          
kurt         
jody         
daisy        
nelson       
katrina      
erika        
claire       
allan        
hugh         
guy          
clayton      
sheryl       
max          
margarita    
geneva       
dwayne       
belinda      
felix        
faye         
dwight       
cora         
armando      
sabrina      
natasha      
isabel       
everett      
ada          
wallace      
sidney       
marguerite   
ian          
hattie       
harriet      
rosie        
molly        
kristi       
ken          
joanna       
iris         
cecilia      
brandi       
bob          
blanche      
julian       
eunice       
angie        
alfredo      
lynda        
ivan         
inez         
freddie      
dave         
alberto      
madeline     
daryl        
byron        
amelia       
alberta      
sonya        
perry        
morris       
monique      
maggie       
kristine     
kayla        
jodi         
janie        
isaac        
genevieve    
candace      
yvette       
willard      
whitney      
virgil       
ross         
opal         
melody       
maryann      
marshall     
fannie       
clifton      
alison       
susie        
shelley      
sergio       
salvador     
olivia       
luz          
kirk         
flora        
andy         
verna        
terrance     
seth         
mamie        
lula         
lola         
kristy       
kent         
beulah       
antoinette   
terrence     
gayle        
eduardo      
pam          
kelli        
juana        
joey         
jeannette    
enrique      
donnie       
candice      
wade         
hannah       
frankie      
bridget      
austin       
stuart       
karla        
evan         
celia        
vicky        
shelia       
patty        
nick         
lynne        
luther       
latoya       
fredrick     
della        
arturo       
alejandro    
wendell      
sheri        
marianne     
julius       
jeremiah     
shaun        
otis         
kara         
jacquelyn    
erma         
blanca       
angelo       
alexis       
trevor       
roxanne      
oliver       
myra         
morgan       
luke         
leticia      
krista       
homer        
gerard       
doug         
cameron      
sadie        
rosalie      
robyn        
kenny        
ira          
hubert       
brooke       
bethany      
bernadette   
bennie       
antonia      
angelica     
alexandra    
adrienne     
traci        
rachael      
nichole      
muriel       
matt         
mable        
lyle         
laverne      
kendra       
jasmine      
ernestine    
chelsea      
alfonso      
rex          
orlando      
ollie        
neal         
marcella     
loren        
krystal      
ernesto      
elena        
carlton      
blake        
angelina     
wilbur       
taylor       
shelby       
rudy         
roderick     
paulette     
pablo        
omar         
noel         
nadine       
lorenzo      
lora         
leigh        
kari         
horace       
grant        
estelle      
dianna       
willis       
rosemarie    
rickey       
mona         
kelley       
doreen       
desiree      
abraham      
rudolph      
preston      
malcolm      
kelvin       
johnathan    
janis        
hope         
ginger       
freda        
damon        
christie     
cesar        
betsy        
andres       
wm           
tommie       
teri         
robbie       
meredith     
mercedes     
marco        
lynette      
eula         
cristina     
archie       
alton        
sophia       
rochelle     
randolph     
pete         
merle        
meghan       
jonathon     
gretchen     
gerardo      
geoffrey     
garry        
felipe       
eloise       
ed           
dominic      
devin        
cecelia      
carroll      
raquel       
lucas        
jana         
henrietta    
gwen         
guillermo    
earnest      
delbert      
colin        
alyssa       
tricia       
tasha        
spencer      
rodolfo      
olive        
myron        
jenna        
edmund       
cleo         
benny        
sophie       
sonja        
silvia       
salvatore    
patti        
mindy        
may          
mandy        
lowell       
lorena       
lila         
lana         
kellie       
kate         
jewel        
gregg        
garrett      
essie        
elvira       
delia        
darla        
cedric       
wilson       
sylvester    
sherman      
shari        
roosevelt    
miranda      
marty        
marta        
lucia        
lorene       
lela         
josefina     
johanna      
jermaine     
jeannie      
israel       
faith        
elsa         
dixie        
camille      
winifred     
wilbert      
tami         
tabitha      
shawna       
rena         
ora          
nettie       
melba        
marina       
leland       
kristie      
forrest      
elisa        
ebony        
alisha       
aimee        
tammie       
simon        
sherrie      
sammy        
ronda        
patrice      
owen         
myrna        
marla        
latasha      
irving       
dallas       
clark        
bryant       
bonita       
aubrey       
addie        
woodrow      
stacie       
rufus        
rosario      
rebekah      
marcos       
mack         
lupe         
lucinda      
lou          
levi         
laurence     
kristopher   
jewell       
jake         
gustavo      
francine     
ellis        
drew         
dorthy       
deloris      
cheri        
celeste      
cara         
adriana      
adele        
abigail      
trisha       
trina        
tracie       
sallie       
reba         
orville      
nikki        
nicolas      
marissa      
lourdes      
lottie       
lionel       
lenora       
laurel       
kerri        
kelsey       
karin        
josie        
janelle      
ismael       
helene       
gilberto     
gale         
francisca    
fern         
etta         
estella      
elva         
effie        
dominique    
corinne      
clint        
brittney     
aurora       
wilfred      
tomas        
toby         
sheldon      
santos       
maude        
lesley       
josh         
jenifer      
iva          
ingrid       
ina          
ignacio      
hugo         
goldie       
eugenia      
ervin        
erick        
elisabeth    
dewey        
christa      
cassie       
cary         
caleb        
caitlin      
bettie       
al           
aida         
van          
therese      
terence      
tamika       
stewart      
santiago     
rosetta      
rogelio      
ramiro       
polly        
noah         
lorna        
latonya      
kris         
janette      
elias        
elbert       
doyle        
dina         
dena         
debora       
darrel       
darnell      
consuelo     
conrad       
cherie       
carey        
candy        
bert         
alonzo       
trudy        
terrell      
stefanie     
shanna       
rolando      
phil         
percy        
patrica      
nell         
lamar        
kimberley    
jillian      
helena       
grady        
fay          
esperanza    
dorothea     
dexter       
devon        
dee          
cornelius    
clay         
carolina     
bradford     
susanne      
saul         
roman        
randal       
ola          
moses        
mollie       
mickey       
maribel      
louie        
kendall      
janine       
irvin        
darin        
amos         
alisa        
winston      
timmy        
susana       
rachelle     
petra        
paige        
micah        
marlon       
leola        
keisha       
joni         
jolene       
jocelyn      
jerald       
isabelle     
imogene      
graciela     
ester        
emmett       
emilio       
emil         
emanuel      
elise        
elijah       
edmond       
dominick     
domingo      
darrin       
daphne       
cecile       
brendan      
boyd         
bette        
alta         
abel         
will         
ursula       
trent        
tonia        
teddy        
stephan      
sondra       
shana        
rosalind     
reynaldo     
otto         
mayra        
marisol      
marisa       
logan        
lizzie       
lacey        
kirsten      
keri         
jess         
jayne        
jaclyn       
humberto     
gracie       
glenna       
gabriela     
emmanuel     
dewayne      
demetrius    
clarice      
charity      
carmela      
bret         
beatriz      
adeline      
young        
vicente      
summer       
staci        
sheena       
shauna       
sammie       
royce        
rodger       
millie       
miles        
margret      
luella       
lily         
lea          
lamont       
katharine    
justine      
jodie        
jeanine      
heath        
harley       
garland      
gabrielle    
frieda       
ethan        
elma         
eldon        
efrain       
claudette    
christi      
cathleen     
autumn       
angeline     
angelia      
winnie       
willa        
sybil        
sterling     
socorro      
selma        
rocky        
pierre       
mavis        
martina      
maritza      
margo        
marcy        
manuela      
luisa        
lucile       
lorie        
leanne       
lara         
ladonna      
junior       
jeannine     
ivy          
grover       
gerry        
freddy       
elton        
eli          
dylan        
dolly        
deana        
damian       
cleveland    
chuck        
chase        
callie       
bryce        
bobbi        
antoine      
aileen       
abby         
virgie       
sydney       
stan         
simone       
russel       
reuben       
randi        
quentin      
ofelia       
murray       
monte        
meagan       
matilda      
magdalena    
leonardo     
leila        
leann        
latisha      
kasey        
jeri         
jasper       
hans         
georgina     
erwin        
ernie        
eliza        
curt         
cruz         
cornelia     
bridgette    
blaine       
bianca       
bettye       
benito       
barbra       
august       
audra        
agustin      
wilfredo     
vance        
valarie      
tyson        
tia          
terrie       
son          
sharron      
ruthie       
rosalyn      
rhoda        
rae          
nola         
nelda        
minerva      
michel       
mia          
lilly        
lidia        
letha        
lenore       
joaquin      
jarrod       
jami         
jamal        
ila          
hilary       
harrison     
harlan       
haley        
greta        
gregorio     
flossie      
estela       
ericka       
elnora       
elliott      
elliot       
earline      
dona         
desmond      
denis        
darwin       
damien       
corrine      
concepcion   
clarissa     
chandra      
catalina     
burton       
buddy        
brianna      
brady        
bernadine    
bart         
ava          
ariel        
ali          
alexandria   
adolfo       
adela        
zelma        
yong         
xavier       
williams     
tania        
tameka       
tabatha      
solomon      
sofia        
serena       
scotty       
saundra      
roscoe       
rory         
rod          
rob          
quinton      
penelope     
pearlie      
odessa       
odell        
noreen       
norbert      
nolan        
neva         
nannie       
moises       
milagros     
melisa       
marylou      
marlin       
malinda      
loraine      
lacy         
kermit       
kendrick     
karina       
jeanie       
hillary      
harriett     
hal          
eve          
esteban      
esmeralda    
emilia       
elwood       
elvin        
darius       
brain        
blair        
benita       
avis         
ashlee       
anton        
amie         
alva         
allyson      
allie        
thurman      
thaddeus     
tanisha      
selena       
rusty        
rosalinda    
rickie       
reggie       
raphael      
noemi        
nita         
ned          
monty        
mason        
marcie       
marcel       
mallory      
louisa       
lorrie       
liza         
lilia        
katy         
julianne     
joesph       
jerri        
jeffry       
jackson      
graham       
gay          
fidel        
fabian       
elisha       
elinor       
earnestine   
earlene      
darcy        
dane         
cliff        
clare        
carmella     
carlene      
bryon        
avery        
armand       
annabelle    
alvaro       
althea       
alejandra    
alana        
yesenia      
wiley        
vaughn       
valeria      
ty           
trinidad     
tammi        
suzette      
roxie        
roslyn       
rodrigo      
rocco        
rigoberto    
ophelia      
numbers      
norris       
nona         
noe          
nanette      
nadia        
mitzi        
millard      
melva        
maryanne     
maricela     
mari         
margery      
madge        
luann        
loyd         
lina         
lilian       
lawanda      
lavonne      
lavern       
lane         
lakisha      
kirby        
kenya        
kaye         
kathrine     
kathie       
juliana      
ivory        
isaiah       
ilene        
hollis       
gus          
gonzalo      
georgette    
fran         
evangeline   
edwina       
dollie       
dion         
diego        
derick       
denny        
deanne       
corine       
colette      
claudine     
clair        
chrystal     
chong        
charmaine    
alphonso     
alissa       
aline        
adolph       
wendi        
ward         
vince        
vilma        
vern         
ulysses      
tristan      
tessa        
susanna      
sheree       
sebastian    
scot         
savannah     
sasha        
rosella      
roseann      
rosanne      
romeo        
riley        
reva         
reed         
quincy       
nickolas     
natalia      
merrill      
maynard      
maxwell      
mauricio     
marva        
marietta     
marci        
madelyn      
lynnette     
liliana      
lessie       
leonor       
lakeisha     
katelyn      
juliette     
josefa       
johnie       
jefferson    
jayson       
jarvis       
janna        
issac        
imelda       
hiram        
heriberto    
gena         
gavin        
federico     
emery        
elvis        
elvia        
eddy         
dusty        
donovan      
donnell      
deirdre      
deidre       
deena        
davis        
dante        
coy          
corina       
cole         
colby        
clement      
chasity      
carly        
bruno        
briana       
berta        
bernie       
bernardo     
basil        
aurelia      
augustine    
augusta      
arline       
araceli      
anastasia    
amalia       
alyce        
winfred      
wilda        
weldon       
vito         
twila        
truman       
trenton      
tisha        
tamra        
tamera       
stevie       
stefan       
silas        
sanford      
rowena       
rosanna      
rhea         
reyna        
queen        
phoebe       
nestor       
millicent    
merlin       
maura        
maryellen    
marquita     
mariana      
marcelino    
mara         
mai          
madeleine    
lolita       
liz          
linwood      
lelia        
leanna       
lauri        
kurtis       
katina       
katheryn     
karyn        
kaitlin      
juliet       
johnathon    
jannie       
janell       
jame         
jacklyn      
isidro       
irwin        
ines         
hunter       
hollie       
hester       
helga        
harris       
hallie       
gilda        
galen        
freida       
frederic     
francesca    
florine      
fanny        
evangelina   
erna         
enid         
dudley       
donny        
dionne       
dick         
diann        
denver       
delmar       
concetta     
collin       
coleen       
cherry       
charley      
cathryn      
casandra     
carter       
carrol       
carmelo      
carlo        
carissa      
brock        
britney      
brigitte     
bridgett     
beryl        
bertie       
beau         
barney       
aurelio      
art          
annmarie     
angelita     
angelique    
amparo       
alyson       
alfreda      
alba         
aisha        
zelda        
zachery      
wilmer       
wilford      
vonda        
tori         
theron       
terra        
sonny        
sierra       
shelton      
sharlene     
selina       
scottie      
sang         
rosalia      
rocio        
robby        
renae        
refugio      
raymundo     
pasquale     
pansy        
pamala       
octavio      
octavia      
noelle       
nelly        
nan          
monroe       
monika       
mohammad     
mina         
michell      
michaela     
mellisa      
mariano      
margot       
ma           
louella      
lincoln      
libby        
letitia      
leta         
lesa         
leonel       
leeann       
latanya      
lashonda     
landon       
lakesha      
kitty        
kimberlee    
kathi        
kaitlyn      
justina      
judi         
josue        
jasmin       
jade         
jacques      
isabella     
hung         
houston      
hong         
herminia     
gussie       
german       
germaine     
geri         
genaro       
gayla        
fletcher     
felecia      
errol        
emory        
emilie       
emerson      
elda         
elba         
edythe       
edwardo      
dorian       
doretha      
dirk         
dessie       
denice       
deidra       
deann        
dayna        
daren        
danial       
dalton       
cortney      
cornell      
chelsey      
celina       
caryn        
carson       
camilla      
buford       
brandie      
branden      
booker       
beverley     
bennett      
ashleigh     
arron        
antony       
antionette   
allene       
adelaide     
adan         
abbie        
zane         
winona       
wilhelmina   
wilburn      
virgina      
vida         
vernice      
verda        
veda         
valentin     
treva        
tillie       
theodora     
theo         
thanh        
thad         
tessie       
teresita     
tera         
tawana       
taryn        
sung         
sun          
soledad      
shonda       
shiela       
shellie      
seymour      
russ         
rosita       
rosalee      
ronny        
robbin       
rich         
retha        
reid         
rebeca       
randell      
racheal      
portia       
pattie       
paris        
oma          
nilda        
myles        
morton       
mohammed     
mitchel      
minh         
migdalia     
mervin       
merry        
maurine      
maudie       
maryjane     
marybeth     
marisela     
marilynn     
marianna     
malissa      
major        
lucretia     
lucien       
luciano      
lona         
lon          
leora        
lazaro       
latrice      
lashawn      
krystle      
kennith      
karrie       
jonas        
jena         
jeanna       
jarrett      
jaqueline    
janel        
jamey        
jamel        
jacquline    
ivette       
iona         
iola         
hortencia    
herschel     
hanna        
guillermina  
griselda     
giovanni     
garth        
freeman      
forest       
ferdinand    
fatima       
ezra         
eugenio      
ernestina    
erich        
eloisa       
elida        
elia         
eleanore     
duncan       
dottie       
dinah        
destiny      
deon         
demetria     
delphine     
delma        
delilah      
debby        
dara         
danna        
daniela      
danette      
cyrus        
cyril        
cindi        
chung        
christin     
christen     
chloe        
chi          
chantel      
chance       
chadwick     
celestine    
catrina      
carmine      
cari         
caren        
brooks       
britt        
brianne      
birdie       
bess         
berry        
belle        
athena       
arnulfo      
arleen       
anderson     
alphonse     
alene        
alecia       
aldo         
agatha       
adrianne     
adelina      
abdul        
zoila        
zoe          
zenaida      
zella        
wyatt        
wilton       
weston       
vesta        
vernell      
venus        
valentine    
valencia     
val          
vada         
una          
trey         
tory         
tomasa       
tiffani      
tiara        
tanner       
tana         
tamela       
suzan        
sol          
shayla       
shanda       
santa        
sandi        
samatha      
rubin        
royal        
roxanna      
roxana       
rosendo      
roseanne     
rodrick      
rico         
reta         
renita       
reinaldo     
reina        
rafaela      
quinn        
pricilla     
pilar        
phillis      
pearline     
paulina      
parker       
osvaldo      
oralia       
olin         
normand      
norberto     
nigel        
nicky        
napoleon     
mitch        
missy        
mirna        
milford      
michal       
melodie      
mellissa     
mayme        
maya         
matilde      
marquis      
marjory      
marge        
margarito    
marcela      
mandi        
madonna      
lyn          
lyman        
lura         
lucio        
lorri        
lettie       
les          
leota        
leopoldo     
lemuel       
lauretta     
larissa      
lanny        
kylie        
kristal      
kisha        
kira         
kieth        
kerrie       
kareem       
jung         
jules        
judson       
josiah       
josef        
jerrod       
jerold       
jayme        
jarred       
jamar        
jamaal       
jae          
isiah        
isabell      
ione         
india        
hershel      
haydee       
harriette    
gisela       
gino         
gillian      
gil          
fritz        
foster       
flor         
filomena     
felicita     
faustino     
evette       
everette     
erlinda      
emile        
elyse        
eloy         
elouise      
elmo         
ellie        
elissa       
eliseo       
efren        
edgardo      
earle        
dorris       
donn         
dominga      
dino         
dewitt       
delois       
deandre      
dannie       
damaris      
dalia        
cristy       
cori         
coleman      
claudio      
christoper   
christal     
charla       
chang        
cathrine     
catharine    
carmelita    
carmel       
caridad      
candida      
burt         
brenton      
breanna      
brant        
boris        
bettina      
berniece     
belva        
bella        
barton       
barb         
aron         
aretha       
antwan       
annetta      
annemarie    
alvina       
alina        
alfonzo      
alexa        
aletha       
alec         
alden        
ahmad        
abe          
zachariah    
yadira       
willy        
werner       
walker       
waldo        
viviana      
violeta      
vikki        
verla        
venessa      
velda        
valorie      
valentina    
tyron        
tyrell       
tyree        
tyra         
twyla        
trista       
tosha        
tonja        
tod          
tobias       
tiana        
theda        
thea         
teodoro      
tena         
tatiana      
tad          
suzanna      
sunny        
stephenie    
stephany     
stanford     
stacia       
shelli       
shayne       
sharyn       
sharonda     
shantel      
shanon       
sal          
sabina       
rupert       
roxann       
roselyn      
rosalina     
rosalba      
romona       
roma         
rolland      
robt         
richie       
richelle     
reyes        
renate       
renata       
raven        
raleigh      
quintin      
princess     
prince       
precious     
porfirio     
philomena    
perla        
otha         
orval        
oren         
ona          
omer         
oleta        
olen         
odis         
noble        
nikita       
niki         
nicki        
newton       
nereida      
nedra        
nathalie     
nakia        
myrtis       
mozelle      
moshe        
mohamed      
misti        
mimi         
milo         
mikel        
micaela      
mi           
melvina      
mel          
mei          
mckinley     
maximo       
mauro        
maud         
marlys       
marlyn       
marlena      
markus       
mariam       
mariah       
marcelo      
marcelle     
man          
majorie      
magda        
mac          
lyndon       
lucila       
luanne       
louann       
lorine       
lizette      
lindy        
lia          
leonora      
leone        
lenny        
lenard       
leilani      
lawerence    
latricia     
latonia      
laquita      
lan          
kyla         
kory         
kip          
kia          
keven        
keshia       
kesha        
kenton       
keenan       
karon        
karol        
julianna     
juli         
jude         
jovita       
josette      
jonah        
johnna       
joelle       
jesica       
jerrold      
jefferey     
jed          
jeana        
jannette     
jamison      
jacquelin    
jacque       
ivonne       
isaias       
ima          
idella       
huey         
horacio      
hipolito     
hilton       
hildegard    
hilario      
herlinda     
hellen       
hayley       
hassan       
hank         
gregoria     
giuseppe     
ginny        
gertie       
gerri        
geraldo      
georgianna   
georgiana    
genoveva     
gaye         
garfield     
gabriella    
fredric      
floy         
florencio    
fermin       
fabiola      
eulalia      
enoch        
easter       
dwain        
dulce        
dovie        
dortha       
dorene       
dorcas       
donte        
dong         
dillon       
demarcus     
delmer       
delfina      
debrah       
debi         
darrick      
darleen      
dario        
danita       
danelle      
damion       
cristal      
corrie       
cordelia     
columbus     
collette     
cletus       
clementine   
chiquita     
chet         
chauncey     
chastity     
charline     
charleen     
chantal      
chanel       
candi        
burl         
bud          
brice        
brenna       
brendon      
bradly       
bo           
bertram      
belen        
barrett      
aura         
augustus     
asia         
ariana       
antonette    
antone       
annamarie    
anissa       
anibal       
andria       
andra        
amado        
alpha        
alaina       
ahmed        
adell        
adalberto    
abram        
zoraida      
zola         
zackary      
zack         
yoshiko      
yolonda      
yasmin       
xiomara      
winnifred    
winford      
windy        
willian      
wilber       
wes          
waylon       
warner       
walton       
wally        
von          
virgilio     
vincenzo     
vickey       
vergie       
venita       
tuan         
tressa       
tresa        
trena        
toya         
toney        
tomeka       
titus        
tiffanie     
tierra       
thuy         
teressa      
terese       
teena        
tawnya       
tawanda      
susannah     
starr        
starla       
stanton      
soon         
sid          
shon         
shirlene     
sherwood     
sherrill     
sherita      
sherie       
shayna       
sharla       
shara        
shante       
shanta       
shamika      
shameka      
shalonda     
shaina       
shad         
scarlett     
santo        
sanjuanita   
sanjuana     
samual       
salina       
ruthann      
rueben       
rudolf       
rubye        
roxane       
rosina       
roseanna     
rona         
rolf         
rhiannon     
rhett        
rey          
renato       
renaldo      
raymon       
rayford      
rashad       
prudence     
porter       
phyliss      
phylis       
phuong       
pennie       
peggie       
palmer       
oswaldo      
orpha        
ok           
nydia        
novella      
nova         
nila         
nicola       
neville      
nena         
natividad    
nathanial    
nathanael    
nannette     
nanci        
myriam       
mose         
modesto      
mittie       
mirian       
mireya       
miquel       
milan        
michale      
meta         
melony       
melina       
meaghan      
maybelle     
maxie        
marylin      
marvel       
marti        
marquerite   
marnie       
marita       
marilee      
mariann      
margarette   
marcellus    
marcelina    
maranda      
manual       
malik        
malcom       
magnolia     
magdalene    
mackenzie    
lynwood      
lyndsey      
lulu         
luigi        
lucius       
lucie        
lovie        
lorenza      
lonny        
long         
lizbeth      
lizabeth     
lissette     
lisette      
lise         
lino         
linnie       
linnea       
lida         
len          
leisa        
leif         
leatrice     
leandro      
lavon        
lavina       
laurette     
laureen      
latosha      
lashanda     
lakeshia     
lacie        
kyung        
kyra         
kyong        
kristofer    
kraig        
kori         
korey        
king         
keneth       
keely        
kassandra    
karolyn      
karissa      
kami         
kala         
joycelyn     
jospeh       
josephina    
jordon       
jonnie       
joleen       
johnson      
joellen      
joanie       
jerrie       
jerrell      
jeromy       
jere         
jeramy       
jenni        
jennette     
jeniffer     
jenelle      
jeanetta     
jeane        
jc           
jarod        
janina       
janeen       
jamila       
jaimie       
jada         
jacinto      
isreal       
inge         
ilse         
ileana       
ike          
hyman        
hoyt         
hosea        
hortense     
holli        
hobert       
hermelinda   
herb         
haywood      
hayden       
harland      
hailey       
hai          
granville    
graig        
giselle      
gerda        
georgie      
gaylord      
gaston       
garret       
garnet       
franklyn     
francesco    
florida      
florentino   
filiberto    
felton       
felisha      
felipa       
felicitas    
fawn         
fausto       
farrah       
ezequiel     
ezekiel      
evonne       
evie         
eusebio      
erasmo       
era          
enriqueta    
ena          
emmitt       
elroy        
ellsworth    
elizebeth    
elenor       
eldridge     
elden        
elaina       
edmundo      
edison       
edie         
douglass     
dorsey       
dorinda      
dori         
donita       
domenic      
dian         
deshawn      
del          
deangelo     
dawna        
darron       
daron        
daria        
darell       
darci        
danilo       
daniella     
cristopher   
cristobal    
cristine     
cortez       
corinna      
cordell      
coral        
colton       
clemente     
claud        
cinthia      
chrissy      
cheryle      
cherly       
chelsie      
chas         
charisse     
chanda       
cedrick      
catina       
cathie       
caryl        
carolee      
carman       
carlotta     
carleen      
carina       
candelaria   
caitlyn      
buster       
buck         
brook        
broderick    
brittani     
brigette     
boyce        
bonny        
blanch       
bernita      
benton       
benedict     
bambi        
astrid       
ashton       
asa          
artie        
arnoldo      
armida       
arlie        
arlen        
ardith       
ardis        
arden        
aracely      
antione      
anh          
andreas      
anabel       
ami          
ambrose      
altagracia   
alonso       
aleta        
alesia       
alesha       
alda         
albina       
alanna       
adrianna     
adriane      
adelaida     
abbey        
zulma        
zula         
zora         
zona         
zina         
zenobia      
zena         
zandra       
zaida        
yu           
yoko         
yetta        
wynona       
willene      
wanita       
vonnie       
viva         
vita         
vina         
vicenta      
verona       
vernita      
vernie       
velva        
velia        
trish        
tressie      
tracee       
tiffiny      
thomasina    
thersa       
tess         
teodora      
tenisha      
tawanna      
tarsha       
tanika       
tangela      
tanesha      
tamiko       
tamie        
tamatha      
tamar        
talia        
syble        
suzy         
suzie        
susann       
sunshine     
su           
stormy       
stephine     
stephani     
stephaine    
stefani      
star         
siobhan      
simona       
sigrid       
sibyl        
shirly       
shirlee      
sherryl      
sherron      
sheron       
sherilyn     
shena        
shay         
shawanda     
shasta       
sharen       
sharee       
shantell     
shannan      
shanita      
shanika      
shani        
shanell      
shandra      
sarita       
sade         
sabra        
sabine       
rufina       
rosaura      
rosaria      
rosalva      
rosaline     
ronna        
romana       
rolanda      
rina         
renea        
regan        
rashida      
randa        
racquel      
pinkie       
paola        
palma        
page         
ouida        
otilia       
oliva        
odette       
ocie         
norine       
norene       
noelia       
ninfa        
nilsa        
nidia        
nicolette    
nicolasa     
nichol       
nichelle     
nia          
nelle        
nella        
nelida       
nakisha      
nada         
myrtice      
myong        
my           
mozell       
moira        
modesta      
mirta        
mira         
mindi        
milissa      
mickie       
meryl        
mercy        
melonie      
meg          
mee          
mechelle     
mazie        
mathilda     
marylyn      
marylee      
maryjo       
martine      
marry        
marlo        
marilou      
mariela      
maribeth     
margarete    
malia        
maira        
maegan       
madison      
machelle     
lyndsay      
lyla         
lyda         
lupita       
lue          
lucienne     
luciana      
luana        
lu           
lorretta     
lorinda      
lorelei      
loreen       
lita         
lissa        
linsey       
linh         
linette      
lin          
liane        
liana        
li           
lesli        
leslee       
lennie       
leesa        
leda         
leatha       
leandra      
lavonda      
lavinia      
lavada       
laurene      
larue        
lanita       
lani         
lanette      
lai          
laci         
kylee        
kum          
krystyna     
kristyn      
kristian     
kristan      
kizzy        
kirstin      
kimberely    
kiara        
kenyatta     
kenna        
kelsie       
keli         
keiko        
kecia        
kaylee       
kathyrn      
kathryne     
kathlyn      
kathlene     
kasandra     
karri        
karlene      
karie        
karan        
kandy        
kandice      
kandi        
kandace      
kacie        
kaci         
kacey        
julissa      
julieta      
juliann      
judie        
jonna        
jolynn       
joi          
johnetta     
joetta       
joana        
jettie       
jerilyn      
jeraldine    
jenniffer    
jazmin       
jaunita      
janey        
janene       
janae        
jammie       
jackeline    
jacinta      
jacalyn      
isela        
irena        
ingeborg     
inga         
in           
ilona        
iliana       
idalia       
huong        
hulda        
hui          
hortensia    
hoa          
hettie       
hedwig       
gretta       
golda        
glory        
gladis       
gisele       
giovanna     
geralyn      
georgetta    
gemma        
gaynell      
fonda        
florene      
fiona        
ferne        
felisa       
felice       
felica       
fallon       
evon         
evelia       
evalyn       
eun          
eugenie      
ethelyn      
estrella     
enedina      
emogene      
emelia       
elvera       
elna         
elmira       
elfriede     
eleanora     
eldora       
elana        
eden         
edelmira     
eda          
eboni        
eartha       
dorthea      
dorotha      
domenica     
desirae      
denna        
deneen       
demetra      
delphia      
delora       
dedra        
debbra       
deb          
davina       
davida       
darline      
darcie       
danyelle     
dannielle    
daniele      
danica       
dani         
cythia       
cyndi        
cristin      
cristi       
corrina      
corene       
corazon      
cleta        
claribel     
cinda        
cierra       
ciara        
chun         
christiane   
christiana   
christene    
christel     
cheyenne     
cherrie      
cherri       
cherise      
charolette   
charlette    
charissa     
chantelle    
chana        
cecily       
cathi        
cassidy      
carri        
caron        
carolynn     
carolann     
carma        
carlyn       
carlota      
carin        
candis       
candance     
cami         
buffy        
bree         
breanne      
brandee      
bobbye       
berenice     
bea          
barbie       
bailey       
ayesha       
awilda       
aurea        
audry        
ashly        
ashlie       
ashely       
asha         
arlette      
arielle      
arcelia      
antonina     
anneliese    
annabel      
anitra       
anika        
anglea       
angella      
anastacia    
america      
amada        
alysia       
alycia       
almeda       
alida        
alexia       
alethea      
alena        
albertine    
albertha     
aja          
agustina     
afton        
adria        
adina        
adelle       
adella       
adelia       
zulema       
zofia        
zita         
yun          
yuko         
yukiko       
yolando      
yolande      
ying         
yi           
yen          
yee          
yanira       
yang         
yan          
wonda        
willia       
willette     
wei          
waltraud     
wai          
vivienne     
vivien       
vivan        
violette     
vinnie       
vincenza     
veta         
versie       
vernetta     
verlie       
verlene      
verena       
verdie       
verdell      
veola        
venice       
vena         
velvet       
vella        
vannessa     
vanita       
vanesa       
vanda        
vallie       
valery       
valda        
usha         
tyesha       
twana        
tuyet        
trula        
trudie       
trudi        
trinity      
trang        
towanda      
toshiko      
tonie        
tonda        
tomoko       
tomika       
tiny         
tiesha       
tianna       
thu          
thresa       
thomasine    
theresia     
theola       
thao         
thalia       
tesha        
terresa      
tereasa      
tequila      
tennille     
tennie       
temeka       
tawny        
tashia       
tarah        
tanna        
tanja        
tammara      
tamica       
tamesha      
tamekia      
tameika      
tamala       
tam          
talitha      
talisha      
takisha      
tabetha      
syreeta      
synthia      
suzann       
suk          
suellen      
sueann       
sudie        
stephane     
steffanie    
stefania     
spring       
soraya       
sook         
soo          
song         
sommer       
solange      
so           
slyvia       
skye         
sindy        
silvana      
silva        
signe        
shu          
shoshana     
shonna       
shona        
shirleen     
shira        
shery        
sherrell     
sherlyn      
sherly       
sherley      
shenita      
shemika      
shelba       
shela        
sheilah      
shea         
shawnna      
shawnee      
shawnda      
shawana      
shavonne     
shavon       
shaunna      
sharyl       
sharleen     
sharita      
shanice      
shanelle     
shaneka      
shakira      
sha          
serina       
selene       
sebrina      
scarlet      
savanna      
sarina       
sari         
santina      
santana      
sanora       
samira       
samara       
salome       
salena       
sachiko      
rubie        
rozella      
rosia        
rosann       
rosana       
rosamond     
ronni        
roni         
romelia      
romaine      
rochell      
risa         
rikki        
retta        
renetta      
remedios     
reiko        
regenia      
regena       
reda         
rebbecca     
rebbeca      
reatha       
rayna        
raylene      
raye         
rasheeda     
randee       
ranae        
rana         
ramonita     
raina        
raeann       
rachell      
rachele      
quiana       
queenie      
qiana        
porsha       
piper        
piedad       
pia          
petrina      
penni        
penney       
pearlene     
pearle       
pauletta     
patrina      
patience     
particia     
pandora      
pamella      
pamelia      
ozella       
ossie        
oneida       
omega        
olympia      
odilia       
obdulia      
nyla         
norah        
noma         
noella       
nikole       
nikia        
nieves       
nicolle      
nicol        
nickole      
nickie       
ngoc         
nga          
neta         
nerissa      
neoma        
nelia        
natosha      
narcisa      
naoma        
nancie       
nana         
nakita       
myung        
myrtie       
myrle        
mui          
mozella      
monserrate   
mirtha       
mireille     
minna        
min          
milagro      
mila         
mikki        
mika         
miguelina    
micki        
michiko      
micheline    
merri        
merna        
merlene      
merilyn      
meridith     
meri         
melynda      
mellie       
melissia     
melany       
melaine      
meghann      
meggan       
mckenzie     
maye         
maybell      
mathilde     
masako       
maryam       
maryalice    
marya        
marquetta    
marni        
marna        
marlen       
marleen      
marlana      
markita      
marilu       
mariel       
margurite    
marguerita   
margorie     
margit       
marget       
margeret     
margart      
margarite    
margaretta   
margarett    
margareta    
maren        
marceline    
maple        
manda        
mana         
mammie       
malisa       
malika       
maida        
maia         
magen        
magdalen     
magaret      
magan        
magaly       
madlyn       
madie        
madalyn      
madaline     
macy         
macie        
lynsey       
lynelle      
lynell       
luvenia      
lurline      
luna         
luise        
ludie        
lucrecia     
lucina       
loyce        
lovella      
louvenia     
louanne      
lory         
loriann      
loree        
lore         
lonna        
loni         
loma         
loida        
loan         
livia        
lisha        
lisbeth      
ling         
lilla        
lili         
ligia        
lien         
librada      
liberty      
lezlie       
lexie        
letty        
lesia        
lera         
leonore      
leonila      
leonie       
leonarda     
lenna        
leighann     
leeanne      
leeanna      
leana        
le           
layla        
lawanna      
lawana       
lavonia      
laverna      
lavera       
laurine      
laurice      
laure        
launa        
latrina      
latoria      
laticia      
latia        
latesha      
latashia     
lashunda     
lasandra     
laronda      
larisa       
larhonda     
laraine      
larae        
lanell       
laila        
lady         
kymberly     
kym          
krysta       
kristel      
kourtney     
kindra       
kimiko       
kimbery      
kimberlie    
kimberli     
kimber       
kiley        
kiesha       
kiera        
kiana        
kenyetta     
kenisha      
kena         
kellye       
kellee       
kelle        
keesha       
keena        
kazuko       
kaylene      
kayleigh     
kayleen      
kattie       
katrice      
katlyn       
katia        
kati         
kathey       
kathern      
katherin     
kathe        
katharina    
kathaleen    
kassie       
kasie        
karyl        
karren       
karmen       
karma        
karleen      
karine       
karey        
kam          
kali         
kaley        
kacy         
jutta        
junita       
julienne     
juliane      
julee        
joye         
joslyn       
joselyn      
jonelle      
jonell       
jona         
jolie        
jolanda      
johana       
joella       
joeann       
jodee        
jina         
jin          
jesusa       
jessi        
jessenia     
jesenia      
jennefer     
jenise       
jenine       
jenice       
jeni         
jenette      
jenell       
jen          
jeanene      
jazmine      
jann         
janita       
janetta      
janett       
janeth       
janessa      
janay        
jaleesa      
jadwiga      
jacqulyn     
jacquiline   
jacquelynn   
jacquelyne   
jacqualine   
jacki        
ivana        
isis         
isidra       
isaura       
isa          
irmgard      
irish        
irina        
inocencia    
inger        
inell        
indira       
iluminada    
ilda         
ilana        
ignacia      
iesha        
idell        
hyun         
hyon         
hye          
hyacinth     
honey        
holley       
hiroko       
hilma        
hildred      
hildegarde   
hilde        
hilaria      
hermine      
hermina      
henriette    
heide        
hee          
hedy         
harmony      
hannelore    
hanh         
hana         
halina       
hae          
ha           
gwyn         
gwenn        
gwenda       
gudrun       
gracia       
glynda       
glinda       
glennis      
glennie      
glendora     
glady        
gigi         
gia          
gertrud      
gertha       
georgine     
georgene     
gennie       
genie        
genia        
gearldine    
gaylene      
garnett      
gabriele     
fumiko       
freeda       
fredia       
fredericka   
frederica    
francoise    
francina     
francie      
france       
florinda     
floretta     
florentina   
florencia    
florance     
flo          
flavia       
fernanda     
fe           
faustina     
farah        
fae          
exie         
evelyne      
eveline      
evelina      
evelin       
ethyl        
ethelene     
estell       
esta         
erminia      
ermelinda    
erline       
erlene       
erinn        
epifania     
enola        
eneida       
emmy         
emmie        
emilee       
emiko        
emelda       
ema          
elvina       
elvie        
else         
elois        
elodia       
ellyn        
elly         
elke         
elizbeth     
elicia       
eliana       
elenora      
eleni        
elease       
elayne       
elanor       
edda         
echo         
earleen      
earlean      
dyan         
dung         
drusilla     
drucilla     
drema        
dreama       
dot          
dorine       
dorie        
dorathy      
donya        
donetta      
domonique    
dominque     
doloris      
dionna       
dione        
dimple       
digna        
diedre       
diedra       
diamond      
devorah      
devora       
devona       
detra        
desire       
dennise      
denita       
denisha      
denese       
demetrice    
delta        
delpha       
dell         
delisa       
delinda      
delicia      
delena       
delana       
deeann       
debroah      
debbi        
deane        
deandra      
dayle        
dawne        
darby        
daphine      
danuta       
dannette     
danika       
dania        
danae        
dalila       
daisey       
dahlia       
dagmar       
cristie      
cristen      
crista       
crissy       
criselda     
corliss      
corie        
coretta      
coreen       
cordie       
consuela     
conchita     
collen       
coletta      
clotilde     
cleora       
cleopatra    
clemmie      
clementina   
clarita      
clarine      
ciera        
cicely       
christena    
christeen    
chin         
cheryll      
cherryl      
cherish      
chaya        
chau         
charise      
chantell     
chante       
celine       
celestina    
celena       
cecila       
cathey       
caterina     
catarina     
casie        
carolyne     
carmon       
carmelina    
carline      
carlie       
carley       
carletta     
carisa       
carie        
caprice      
candyce      
candie       
cammie       
camelia      
brynn        
brunilda     
bronwyn      
brittni      
britni       
britany      
brinda       
brigida      
brigid       
branda       
blythe       
birgit       
billye       
beverlee     
bev          
betsey       
bethel       
bethann      
bernetta     
berneice     
belia        
beckie       
barbera      
barbar       
babette      
babara       
azucena      
ayanna       
ayana        
avelina      
aundrea      
augustina    
audrea       
audie        
asuncion     
assunta      
ashlyn       
ashli        
arvilla      
arnita       
arnetta      
arminda      
armanda      
arletta      
arlena       
arla         
arie         
arianna      
ariane       
ardella      
ardell       
aracelis     
apryl        
anya         
antonietta   
annis        
annice       
annett       
annamae      
annalisa     
annalee      
annabell     
anjanette    
angle        
angelika     
angelic      
angeles      
angelena     
angele       
anette       
andree       
ammie        
amina        
alysha       
alyse        
alvera       
altha        
almeta       
alline       
allegra      
alla         
aliza        
alix         
alisia       
alishia      
alise        
alica        
alia         
alethia      
alejandrina  
aleida       
albertina    
akiko        
adriene      
adaline      
zonia        
zetta        
zenia        
zana         
zada         
yvone        
yuriko       
yuri         
yuonne       
yung         
yulanda      
yuki         
yuk          
yuette       
youlanda     
yoshie       
yon          
yevette      
yessenia     
yer          
yelena       
yasuko       
yasmine      
yajaira      
yahaira      
yael         
yaeko        
xuan         
xochitl      
xiao         
xenia        
wynell       
winter       
willow       
willodean    
williemae    
willetta     
willena      
wilhemina    
whitley      
wenona       
wendolyn     
wendie       
wen          
wava         
wanetta      
waneta       
wan          
voncile      
virgen       
vinita       
viki         
victorina    
vi           
vertie       
veronique    
veronika     
vernia       
verline      
vennie       
venetta      
vasiliki     
vashti       
vannesa      
vanna        
vania        
vanetta      
valrie       
valeri       
valene       
ute          
un           
ulrike       
ula          
tynisha      
tyisha       
twanna       
twanda       
tula         
tu           
trinh        
treena       
treasa       
tran         
tova         
toshia       
torrie       
torri        
torie        
tora         
tonita       
tonisha      
tonette      
tona         
tommye       
tomiko       
tomi         
toi          
toccara      
tobie        
tobi         
tish         
tisa         
tinisha      
timika       
tilda        
tijuana      
tiffaney     
tifany       
tiera        
tien         
thora        
thomasena    
thi          
theressa     
terrilyn     
terisa       
terina       
terica       
teresia      
teofila      
tenesha      
temple       
tempie       
temika       
telma        
teisha       
tegan        
tayna        
tawna        
taunya       
tatyana      
tatum        
tasia        
tashina      
tarra        
tari         
taren        
taneka       
tandy        
tandra       
tammera      
tamisha      
tambra       
tama         
takako       
tajuana      
taisha       
taina        
tai          
ta           
sylvie       
svetlana     
suzi         
susy         
sunni        
sunday       
sumiko       
sulema       
suanne       
stephnie     
stephania    
stepanie     
stefany      
stasia       
stacee       
sparkle      
sona         
somer        
soila        
sixta        
siu          
sirena       
sina         
simonne      
sima         
shyla        
shonta       
shondra      
shizuko      
shizue       
shirl        
shirely      
shin         
shiloh       
shila        
sheryll      
sherril      
sherlene     
sherise      
sherill      
sherika      
sheridan     
sherice      
sherell      
shera        
shenna       
shenika      
shemeka      
shella       
sheba        
shawnta      
shawanna     
shavonda     
shaunte      
shaunta      
shaunda      
sharri       
sharolyn     
sharmaine    
sharilyn     
sharika      
sharie       
sharice      
sharell      
sharda       
sharan       
shaquita     
shaquana     
shanti       
shantelle    
shantay      
shantae      
shaniqua     
shanel       
shandi       
shanae       
shan         
shalon       
shalanda     
shala        
shakita      
shakia       
shae         
setsuko      
serita       
serafina     
september    
senaida      
sena         
seema        
see          
season       
sau          
saturnina    
saran        
sarai        
sandie       
sandee       
sanda        
sana         
samella      
salley       
sage         
sadye        
sacha        
ryann        
ruthe        
ruthanne     
rutha        
rubi         
rozanne      
roxy         
rosy         
rossie       
rossana      
rosio        
rosette      
rosenda      
rosena       
roselle      
roseline     
roselia      
roselee      
rosamaria    
rolande      
rochel       
robena       
robbyn       
robbi        
rivka        
riva         
rima         
ricki        
ricarda      
ria          
rhona        
rheba        
reynalda     
ressie       
renna        
renda        
renay        
remona       
rema         
reita        
reginia      
regine       
refugia      
reena        
rebecka      
reanna       
reagan       
rea          
raymonde     
ranee        
raisa        
raguel       
raelene      
rachal       
quyen        
pura         
providencia  
priscila     
porsche      
pok          
ping         
phylicia     
phung        
phebe        
petronila    
pei          
peg          
pearly       
paz          
paulita      
paulene      
patria       
pasty        
parthenia    
pamula       
pamila       
palmira      
pa           
ozie         
ozell        
otelia       
oretha       
oralee       
onita        
onie         
olinda       
olimpia      
olevia       
olene        
odelia       
oda          
nubia        
nu           
noriko       
nohemi       
nobuko       
nisha        
niesha       
nida         
nicholle     
nguyet       
ngan         
nevada       
nery         
neomi        
nenita       
neida        
neely        
neda         
necole       
natisha      
natashia     
natalya      
natacha      
nancey       
nancee       
nam          
nakesha      
naida        
nadene       
na           
myrta        
myrl         
myesha       
muoi         
moriah       
mora         
moon         
monnie       
monet        
miyoko       
mitzie       
mitsuko      
mitsue       
mistie       
miss         
misha        
mirella      
minta        
ming         
minda        
milly        
milda        
miki         
mikaela      
mignon       
miesha       
michelina    
michaele     
micha        
mica         
mertie       
merrilee     
merrie       
merlyn       
merissa      
merideth     
mercedez     
mendy        
melodi       
melodee      
melita       
melida       
melia        
melda        
melania      
melani       
meda         
mayola       
maximina     
maxima       
maurita      
matha        
maryrose     
marylynn     
marylouise   
maryln       
maryland     
maryetta     
marybelle    
maryanna     
marx         
marvis       
marvella     
marth        
marquitta    
marline      
marketta     
marivel      
marisha      
maris        
marine       
marinda      
marin        
mariko       
mariette     
marielle     
mariella     
maricruz     
marica       
marianela    
marhta       
margy        
margrett     
margherita   
margert      
margene      
marg         
mardell      
marchelle    
marcene      
marcell      
marcelene    
maragret     
maragaret    
mao          
many         
manie        
mandie       
malvina      
malorie      
mallie       
malka        
malena       
makeda       
maisie       
maisha       
maire        
maile        
mahalia      
magali       
mafalda      
madelene     
madelaine    
maddie       
madalene     
mabelle      
lynna        
lynetta      
lyndia       
lurlene      
luetta       
ludivina     
lucilla      
luci         
luba         
luanna       
lovetta      
love         
lourie       
loura        
louetta      
lorrine      
lorriane     
lorita       
loris        
lorina       
lorilee      
loria        
lorette      
loreta       
lorean       
loralee      
londa        
loise        
lizzette     
lizeth       
lisandra     
lisabeth     
linn         
lindsy       
lilliana     
lilliam      
lillia       
lilli        
lieselotte   
libbie       
lianne       
letisha      
lesha        
leontine     
leonida      
leonia       
leoma        
lenita       
lelah        
lekisha      
leisha       
leigha       
leida        
leia         
leena        
lecia        
leanora      
lean         
layne        
lavonna      
lavone       
lavona       
lavette      
laveta       
lavenia      
lavelle      
lauryn       
laurinda     
laurena      
lauran       
lauralee     
latrisha     
latoyia      
latina       
latarsha     
lasonya      
lashon       
lashell      
lashay       
lashawnda    
lashawna     
lashaunda    
lashaun      
lashandra    
larraine     
larita       
laree        
laquanda     
lanora       
lannie       
lanie        
lang         
lanelle      
lamonica     
lala         
lakita       
lakiesha     
lakia        
lakenya      
lakendra     
lakeesha     
lajuana      
laine        
lahoma       
lael         
ladawn       
lacresha     
lachelle     
kyoko        
krystina     
krystin      
krysten      
kristle      
kristeen     
krissy       
krishna      
kortney      
klara        
kizzie       
kiyoko       
kittie       
kit          
kirstie      
kina         
kimi         
kimbra       
kiersten     
khalilah     
khadijah     
keva         
keturah      
kerstin      
keren        
kera         
kenia        
kendal       
kenda        
kemberly     
kelsi        
keitha       
keira        
keila        
keeley       
kaycee       
kayce        
kathrin      
kathline     
katherina    
katheleen    
katharyn     
katerine     
katelynn     
katelin      
kasi         
kasha        
kary         
karry        
karoline     
karole       
karlyn       
karly        
karisa       
karima       
karena       
kareen       
kanisha      
kanesha      
kandra       
kandis       
kamilah      
kamala       
kalyn        
kallie       
kaleigh      
kaila        
kai          
ka           
justa        
junko        
junie        
julietta     
julieann     
julene       
jule         
joya         
jovan        
josphine     
josefine     
jonie        
jong         
jone         
jolyn        
joline       
joie         
johnsie      
johnette     
johna        
johanne      
joette       
joaquina     
joannie      
joane        
jinny        
ji           
jetta        
jesusita     
jestine      
jessika      
jessia       
jerrica      
jerlene      
jerica       
jennine      
jennell      
jeneva       
jenee        
jene         
jenae        
jeffie       
jeannetta    
jeanmarie    
jeanice      
jeanett      
jeanelle     
jayna        
jaymie       
jaye         
jaquelyn     
janyce       
january      
jannet       
janise       
janiece      
jani         
janella      
janee        
janean       
jamika       
jamee        
jama         
jalisa       
jaimee       
jacquie      
jacqui       
jacquetta    
jackqueline  
jackelyn     
jacinda      
jacelyn      
ja           
izola        
izetta       
ivey         
ivelisse     
isobel       
isadora      
iraida       
illa         
ileen        
hyo          
hwa          
hue          
hsiu         
hisako       
hien         
hiedi        
hertha       
herta        
hermila      
herma        
helaine      
heike        
heidy        
hassie       
hang         
han          
halley       
gwyneth      
grisel       
gricelda     
grazyna      
grayce       
golden       
glynis       
glayds       
giuseppina   
gita         
ginette      
gilma        
gilberte     
gidget       
gianna       
ghislaine    
gertude      
gertrudis    
georgianne   
georgiann    
georgeanna   
georgeann    
georgann     
genny        
genna        
genevive     
genevie      
genesis      
gema         
gaynelle     
galina       
gala         
frida        
fredricka    
fredda       
fransisca    
franchesca   
francene     
florrie      
floria       
fleta        
fidelia      
fidela       
fernande     
fermina      
felicidad    
faviola      
fatimah      
fairy        
ewa          
evita        
evia         
evelynn      
eustolia     
eusebia      
eura         
euna         
eulah        
eugena       
eufemia      
ettie        
etsuko       
etha         
estefana     
eryn         
enda         
emmaline     
emerita      
emerald      
emely        
emeline      
emelina      
elza         
elwanda      
elsy         
elli         
ellena       
ellan        
ellamae      
elizabet     
eliz         
elinore      
elina        
elin         
elidia       
elfrieda     
elfreda      
eleonore     
eleonora     
eleonor      
elenore      
elene        
elane        
eladia       
ela          
eilene       
ehtel        
edyth        
edris        
edra         
ebonie       
earlie       
dwana        
dusti        
dulcie       
dotty        
dorthey      
dorla        
doria        
doretta      
dorethea     
doreatha     
donnette     
donnetta     
donette      
donella      
domitila     
dominica     
dodie        
divina       
dinorah      
dierdre      
dia          
despina      
deonna       
denyse       
denisse      
denae        
delsie       
delorse      
deloras      
deloise      
delmy        
delila       
delcie       
delaine      
deja         
deetta       
deedra       
deedee       
deeanna      
dede         
debera       
deandrea     
deadra       
daysi        
darlena      
darcey       
darcel       
danyell      
danyel       
dann         
danille      
daniell      
dalene       
dakota       
daine        
daina        
dagny        
dacia        
cyrstal      
cyndy        
cuc          
crystle      
crysta       
cris         
creola       
corrinne     
corrin       
cordia       
coralie      
coralee      
contessa     
concha       
conception   
collene      
colene       
codi         
clorinda     
clora        
cleotilde    
clemencia    
clelia       
claudie      
classie      
clarisa      
claris       
clarinda     
claretta     
claretha     
cira         
cindie       
cinderella   
chu          
christinia   
christia     
ching        
china        
chieko       
chia         
chery        
cherlyn      
cherilyn     
cherelle     
cheree       
chere        
cher         
chassidy     
chasidy      
charmain     
charlyn      
charlsie     
charlott     
charlesetta  
charlena     
charita      
charis       
chara        
chantay      
chanelle     
chanell      
chan         
chae         
ceola        
celsa        
celinda      
celesta      
cecille      
cayla        
catrice      
catheryn     
cathern      
catherina    
catherin     
cassy        
cassondra    
cassi        
cassey       
cassaundra   
casimira     
carylon      
carry        
caroyln      
caroll       
carolin      
carola       
carmina      
carmelia     
carlita      
carli        
carlena      
carlee       
carita       
candra       
cammy        
camila       
camie        
camellia     
calista      
calandra     
burma        
bunny        
bulah        
bula         
buena        
bryanna      
bruna        
brittny      
britteny     
brittanie    
brittaney    
britta       
breann       
breana       
brande       
bong         
bok          
bobette      
blossom      
blondell     
billi        
bibi         
beula        
bettyann     
bethanie     
bernardine   
bernardina   
bernarda     
berna        
bell         
belkis       
bee          
becki        
bebe         
beaulah      
beatris      
beata        
basilia      
barrie       
bari         
barabara     
bao          
azzie        
azalee       
ayako        
avril        
aurore       
audrie       
audria       
asley        
ashlea       
ashanti      
arnette      
armandina    
arlyne       
arlinda      
arletha      
arlean       
arica        
arianne      
argentina    
argelia      
ardelle      
ardelia      
ardath       
ara          
apolonia     
antonetta    
annita       
annika       
annelle      
annamaria    
anjelica     
anja         
anisha       
anisa        
angla        
angila       
angelyn      
andera       
anamaria     
analisa      
an           
amira        
amiee        
amee         
amberly      
amal         
alysa        
alverta      
alona        
allyn        
allena       
alleen       
alita        
alfredia     
alessandra   
aleshia      
aleisha      
aleen        
alease       
alayna       
alane        
alaine       
akilah       
ailene       
aiko         
aide         
ai           
agueda       
agripina     
agnus        
adrien       
adena        
adah         